<?xml version="1.0" encoding="UTF-8" standalone="no"?>
<svg
   width="256"
   height="256"
   viewBox="0 0 67.733 67.733"
   version="1.1"
   id="svg192"
   xmlns="http://www.w3.org/2000/svg"
   xmlns:svg="http://www.w3.org/2000/svg">
  <defs
     id="defs196" />
  <rect
     style="fill:#000;stroke-width:0.0186105"
     width="67.733"
     height="67.733"
     ry="9.836"
     id="rect186" />
  <path
     d="m 10.76052,51.939536 q 0,-2.343739 1.682804,-4.026543 1.681867,-1.682804 4.025605,-1.682804 2.373739,0 4.056543,1.682804 1.682804,1.682804 1.682804,4.026543 0,2.373738 -1.682804,4.056542 -1.682804,1.682805 -4.056543,1.682805 -2.343738,0 -4.025605,-1.682805 Q 10.76052,54.313274 10.76052,51.939536 Z M 56.97248,18.046265 h -3.365608 q -0.239999,-2.343738 -1.380931,-3.485608 -1.11187,-1.141869 -3.185609,-1.141869 -2.403739,0 -3.485608,1.743741 -1.08187,1.711867 -1.08187,5.587473 v 4.11748 h 8.023086 v 3.635607 h -8.023086 v 24.668316 h 6.159345 v 3.635607 h -21.33177 v -3.63467 h 4.537477 V 28.503089 h -4.749351 v -3.635607 h 4.747476 v -3.996543 q 0,-5.318412 3.394671,-8.053086 3.395609,-2.763736 9.975889,-2.763736 2.553737,0 4.987475,0.299999 2.434676,0.270936 4.777477,0.84187 z"
     style="font-weight:700;font-size:65.6394px;line-height:1.25;font-family:'DejaVu Serif';-inkscape-font-specification:'DejaVu Serif Bold';fill:#00ff00;stroke-width:0.320502"
     aria-label=".f"
     id="path188" />
</svg>
